…
```{r setup, include=FALSE}
knitr::opts_chunk$set(echo = TRUE)
```

# **2 Sentiment analysis with tidy data**

```{r}
library(tidytext)

get_sentiments("afinn")
```

```{r}
get_sentiments("bing")
#> # A tibble: 6,786 × 2
#>    word        sentiment
#>    <chr>       <chr>    
#>  1 2-faces     negative 
#>  2 abnormal    negative 
#>  3 abolish     negative 
#>  4 abominable  negative 
#>  5 abominably  negative 
#>  6 abominate   negative 
#>  7 abomination negative 
#>  8 abort       negative 
#>  9 aborted     negative 
#> 10 aborts      negative 
#> # … with 6,776 more rows
```
…
```{r}
library(ggplot2)

ggplot(jane_austen_sentiment, aes(index, sentiment, fill = book)) +
  geom_col(show.legend = FALSE) +
  facet_wrap(~book, ncol = 2, scales = "free_x")
```

```{r}
pride_prejudice <- tidy_books %>% 
  filter(book == "Pride & Prejudice")

pride_prejudice
#> # A tibble: 122,204 × 4
#>    book              linenumber chapter word     
#>    <fct>                  <int>   <int> <chr>    
#>  1 Pride & Prejudice          1       0 pride    
#>  2 Pride & Prejudice          1       0 and      
#>  3 Pride & Prejudice          1       0 prejudice
#>  4 Pride & Prejudice          3       0 by       
#>  5 Pride & Prejudice          3       0 jane     
#>  6 Pride & Prejudice          3       0 austen   
#>  7 Pride & Prejudice          7       1 chapter  
#>  8 Pride & Prejudice          7       1 1        
#>  9 Pride & Prejudice         10       1 it       
#> 10 Pride & Prejudice         10       1 is       
#> # … with 122,194 more rows
```
…
```{r}
bing_word_counts <- tidy_books %>%
  inner_join(get_sentiments("bing")) %>%
  count(word, sentiment, sort = TRUE) %>%
  ungroup()

bing_word_counts
#> # A tibble: 2,585 × 3
#>    word     sentiment     n
#>    <chr>    <chr>     <int>
#>  1 miss     negative   1855
#>  2 well     positive   1523
#>  3 good     positive   1380
#>  4 great    positive    981
#>  5 like     positive    725
#>  6 better   positive    639
#>  7 enough   positive    613
#>  8 happy    positive    534
#>  9 love     positive    495
#> 10 pleasure positive    462
#> # … with 2,575 more rows
```
…
```{r}
custom_stop_words <- bind_rows(tibble(word = c("miss"),  
                                      lexicon = c("custom")), 
                               stop_words)

custom_stop_words
#> # A tibble: 1,150 × 2
#>    word        lexicon
#>    <chr>       <chr>  
#>  1 miss        custom 
#>  2 a           SMART  
#>  3 a's         SMART  
#>  4 able        SMART  
#>  5 about       SMART  
#>  6 above       SMART  
#>  7 according   SMART  
#>  8 accordingly SMART  
#>  9 across      SMART  
#> 10 actually    SMART  
#> # … with 1,140 more rows
```
…
